…
```r
# you can also use the cut function to do the same
gapminder %>% 
  filter(year == 1997) %>%
  mutate(LIFE_LEVEL = cut(gapminder$lifeExp[gapminder$year==1997], 
                          breaks=c(0,23,48,59,70,150), 
                          labels=c("very low", "low", "moderate",
                                   "high", "very high")))
```

```
## # A tibble: 142 x 7
##    country     continent  year lifeExp       pop gdpPercap LIFE_LEVEL
##    <fct>       <fct>     <int>   <dbl>     <int>     <dbl> <fct>     
##  1 Afghanistan Asia       1997    41.8  22227415      635. low       
##  2 Albania     Europe     1997    73.0   3428038     3193. very high 
##  3 Algeria     Africa     1997    69.2  29072015     4797. high      
##  4 Angola      Africa     1997    41.0   9875024     2277. low       
##  5 Argentina   Americas   1997    73.3  36203463    10967. very high 
##  6 Australia   Oceania    1997    78.8  18565243    26998. very high 
##  7 Austria     Europe     1997    77.5   8069876    29096. very high 
##  8 Bahrain     Asia       1997    73.9    598561    20292. very high 
##  9 Bangladesh  Asia       1997    59.4 123315288      973. high      
## 10 Belgium     Europe     1997    77.5  10199787    27561. very high 
## # … with 132 more rows
```
…
